<?xml version="1.0" encoding="utf-8"?>
<!-- Generator: Adobe Illustrator 16.0.0, SVG Export Plug-In . SVG Version: 6.00 Build 0)  -->
<!DOCTYPE svg PUBLIC "-//W3C//DTD SVG 1.1//EN" "http://www.w3.org/Graphics/SVG/1.1/DTD/svg11.dtd">
<svg version="1.1" id="Layer_1" xmlns="http://www.w3.org/2000/svg" xmlns:xlink="http://www.w3.org/1999/xlink" x="0px" y="0px"
	 width="430px" height="108px" viewBox="0 0 430 108" enable-background="new 0 0 430 108" xml:space="preserve">
<g>
	<defs>
		<rect id="SVGID_1_" x="-21" y="-96.8" width="460" height="298.8"/>
	</defs>
	<clipPath id="SVGID_2_">
		<use xlink:href="#SVGID_1_"  display="none" overflow="visible"/>
	</clipPath>
</g>
<g>
	<path fill="#EA953B" d="M96.7,51.1c-2.1-23.5-16.4-33.5-26.4-37.4c-4.5-1.9-9.7-3.1-14.3-3.3l-2-0.1C30.8,10.4,12,29.3,12,52.6
		s18.8,42.3,41.9,42.3c7.8,0,15.2-2.2,21.4-6c0,0,0,0,0,0c4.3-3.2,9.3,2.2,12.7,3.9c3.7,1.8,8.6,1.8,8.9-2.3
		C97.3,85.3,97.2,64,96.7,51.1 M69.7,64.5c0,2.8-2.3,5.1-5.1,5.1H35.2c-2.8,0-5.1-2.3-5.1-5.1V49.5c0-2.8,2.3-5.1,5.1-5.1h0.9v14.2
		c0,2.8,2.3,5.1,5.1,5.1h28.5V64.5z M69.7,60.7H44.4c-2.8,0-5.1-2.3-5.1-5.1V44.4h25.3c2.8,0,5.1,2.3,5.1,5.1V60.7z M78.9,55.6
		c0,2.8-2.3,5.1-5.1,5.1h-0.9V46.5c0-2.8-2.3-5.1-5.1-5.1H39.3v-0.9c0-2.8,2.3-5.1,5.1-5.1h29.4c2.8,0,5.1,2.3,5.1,5.1V55.6z"/>
	<path fill="#1D1D1B" d="M145.8,27.4c-16.2,0-29.4,13.2-29.4,29.5c0,16.2,13.2,29.4,29.4,29.4c8.2,0,16-3.4,21.6-9.4V82
		c0,0,0.1,3.7,4,3.7c4,0,4-3.7,4-3.7V56.9C175.3,40.7,162.1,27.4,145.8,27.4 M167.4,56.9c0,11.8-9.7,21.5-21.6,21.5
		c-11.8,0-21.5-9.6-21.5-21.5c0-11.9,9.6-21.6,21.5-21.6C157.7,35.4,167.4,45,167.4,56.9"/>
	<path fill="#1D1D1B" d="M218.3,30.7c-1.1-1.8-2.3-2.7-3.7-2.7c-1.5,0-2.9,0.9-4,2.7l-26.8,48.6c-0.3,0.5-0.4,1.2-0.4,1.9
		c0,2.6,1.5,4.2,4,4.2c1.5,0,2.8-0.8,3.5-2.3l23.7-43.7l23,43.6c0.7,1.5,2,2.3,3.6,2.3c2.5,0,4-1.6,4-4.2c0-0.7-0.1-1.3-0.4-1.9
		L218.3,30.7z"/>
	<path fill="#1D1D1B" d="M298.8,36.3c-6-5.6-12.9-8.5-20.7-8.5c-8.5,0-15.8,2.9-21.7,8.5c-5.8,5.7-8.8,12.7-8.8,21
		c0,7.9,3,14.9,8.8,20.7c5.8,5.7,12.9,8.5,21.2,8.5c8,0,15.2-2.9,21.2-8.5c6-6,9-13,9-20.9C307.9,48.9,304.9,42,298.8,36.3
		 M299.3,57.3c0,5.9-2,10.7-6.2,14.9c-4.3,4.3-9.4,6.4-15.4,6.4c-6,0-11-2.1-15.2-6.5c-4.3-4.2-6.4-9.1-6.4-15.1
		c0-5.9,2.1-10.8,6.4-15.1c4.2-4.2,9-6.2,14.9-6.2c6,0,11.2,2,15.6,6.2C297.2,46,299.3,51.1,299.3,57.3"/>
	<path fill="#1D1D1B" d="M345.2,30.7c-1.1-1.8-2.4-2.7-3.7-2.7c-1.5,0-2.9,0.9-4,2.7l-26.8,48.6c-0.3,0.5-0.4,1.2-0.4,1.9
		c0,2.6,1.5,4.2,4,4.2c1.5,0,2.8-0.8,3.5-2.3l23.7-43.7l23,43.6c0.7,1.5,2,2.3,3.6,2.3c2.5,0,4-1.6,4-4.2c0-0.7-0.1-1.3-0.4-1.9
		L345.2,30.7z"/>
	<path fill="#1D1D1B" d="M417,75.3c1.2-2.3,1.8-5,1.8-8.1c0-5.2-2.2-9.6-6.6-13.1c-4.3-3.4-9.7-5.2-16.1-5.2h-8.7h-0.8v-0.8
		l-0.1-16.5c0-2.3-1.4-3.6-3.9-3.6c-2.3,0-3.6,1.3-3.6,3.6l0.1,50.1c0,2.5,1.3,3.8,3.6,3.8h16.5c2.3,0,4.6-0.4,6.9-1.1
		c2.3-0.7,4.4-1.8,6.3-3.4C414.2,79.6,415.8,77.6,417,75.3 M407.6,75.7c-2.7,2-5.5,3-8.5,3h-11.8h-0.8v-0.8V57v-0.8h0.8h8.7
		c4.5,0,8.2,1.1,11.2,3.2c2.9,2.1,4.3,4.7,4.3,7.9C411.5,71,410.2,73.7,407.6,75.7"/>
</g>
</svg>
